^C:\USERS\GABBA\DOCUMENTS\OOP2\ООП---2\ООП---2\DEBUG\BABY.OBJ|C:\USERS\GABBA\DOCUMENTS\OOP2\ООП---2\ООП---2\DEBUG\HUMAN.OBJ|C:\USERS\GABBA\DOCUMENTS\OOP2\ООП---2\ООП---2\DEBUG\MAN.OBJ|C:\USERS\GABBA\DOCUMENTS\OOP2\ООП---2\ООП---2\DEBUG\WOMAN.OBJ|C:\USERS\GABBA\DOCUMENTS\OOP2\ООП---2\ООП---2\DEBUG\ООП---2.OBJ
/OUT:"C:\USERS\GABBA\DOCUMENTS\OOP2\ООП---2\DEBUG\ООП---2.EXE" /INCREMENTAL /NOLOGO KERNEL32.LIB USER32.LIB GDI32.LIB WINSPOOL.LIB COMDLG32.LIB ADVAPI32.LIB SHELL32.LIB OLE32.LIB OLEAUT32.LIB UUID.LIB ODBC32.LIB ODBCCP32.LIB /MANIFEST /MANIFESTUAC:"level='asInvoker' uiAccess='false'" /manifest:embed /DEBUG:FASTLINK /PDB:"C:\USERS\GABBA\DOCUMENTS\OOP2\ООП---2\DEBUG\ООП---2.PDB" /SUBSYSTEM:CONSOLE /TLBID:1 /DYNAMICBASE /NXCOMPAT /IMPLIB:"C:\USERS\GABBA\DOCUMENTS\OOP2\ООП---2\DEBUG\ООП---2.LIB" /MACHINE:X86 DEBUG\BABY.OBJ
DEBUG\MAN.OBJ
DEBUG\HUMAN.OBJ
DEBUG\WOMAN.OBJ
"DEBUG\ООП---2.OBJ"
