^C:\USERS\GABBA\DOCUMENTS\OOP2\ООП---2\ООП---2\DEBUG\BABY.OBJ|C:\USERS\GABBA\DOCUMENTS\OOP2\ООП---2\ООП---2\DEBUG\HUMAN.OBJ|C:\USERS\GABBA\DOCUMENTS\OOP2\ООП---2\ООП---2\DEBUG\MAN.OBJ|C:\USERS\GABBA\DOCUMENTS\OOP2\ООП---2\ООП---2\DEBUG\WOMAN.OBJ|C:\USERS\GABBA\DOCUMENTS\OOP2\ООП---2\ООП---2\DEBUG\ООП---2.OBJ
C:\USERS\GABBA\DOCUMENTS\OOP2\ООП---2\DEBUG\ООП---2.EXE
C:\USERS\GABBA\DOCUMENTS\OOP2\ООП---2\DEBUG\ООП---2.ILK
C:\USERS\GABBA\DOCUMENTS\OOP2\ООП---2\DEBUG\ООП---2.PDB
